C:\Users\Graduate\Andrew\projectc12\data-analyzer-core\src\main\java\deutschebank\dao\UserDao.java
C:\Users\Graduate\Andrew\projectc12\data-analyzer-core\src\main\java\deutschebank\dbutils\PropertyLoader.java
C:\Users\Graduate\Andrew\projectc12\data-analyzer-core\src\main\java\deutschebank\entity\Deal.java
C:\Users\Graduate\Andrew\projectc12\data-analyzer-core\src\main\java\deutschebank\entity\Counterparty.java
C:\Users\Graduate\Andrew\projectc12\data-analyzer-core\src\main\java\deutschebank\entity\Instrument.java
C:\Users\Graduate\Andrew\projectc12\data-analyzer-core\src\main\java\deutschebank\entity\User.java
C:\Users\Graduate\Andrew\projectc12\data-analyzer-core\src\main\java\deutschebank\dbutils\DBConnector.java
